<svg xmlns="http://www.w3.org/2000/svg" width="32.39" height="30.012" viewBox="0 0 32.39 30.012">
  <g id="Group_41" data-name="Group 41" transform="translate(1)">
    <g id="Rectangle_51" data-name="Rectangle 51" transform="translate(-1)" fill="none" stroke="#f6e9e9" stroke-width="2.3">
      <rect width="3.3" height="30" rx="1.65" stroke="none"/>
      <rect x="1.15" y="1.15" width="1" height="27.7" rx="0.5" fill="none"/>
    </g>
    <g id="Rectangle_54" data-name="Rectangle 54" transform="translate(10)" fill="none" stroke="#f6e9e9" stroke-width="2.3">
      <rect width="3.3" height="30" rx="1.65" stroke="none"/>
      <rect x="1.15" y="1.15" width="1" height="27.7" rx="0.5" fill="none"/>
    </g>
    <g id="Rectangle_55" data-name="Rectangle 55" transform="translate(19.949 1.174) rotate(-16)" fill="none" stroke="#f6e9e9" stroke-width="2.3">
      <rect width="3.3" height="30" rx="1.65" stroke="none"/>
      <rect x="1.15" y="1.15" width="1" height="27.7" rx="0.5" fill="none"/>
    </g>
  </g>
</svg>
