<svg xmlns="http://www.w3.org/2000/svg" width="74" height="11" viewBox="0 0 74 11">
  <line id="Line_105" data-name="Line 105" x1="63" transform="translate(5.5 5.5)" fill="none" stroke="#fff" stroke-linecap="round" stroke-width="11" opacity="0.17"/>
</svg>
